<?xml version="1.0" encoding="ASCII"?>
<graph:GModel xmi:version="2.0" xmlns:xmi="http://www.omg.org/XMI" xmlns:graph="http://de.tesis.dynaware.grapheditor.model/1.0">
  <nodes id="Node_id:1574154959612" type="ulo-node-or" x="161.0" y="131.0" height="184.0">
    <connectors type="titled-right-output"/>
    <connectors type="titled-left-input"/>
  </nodes>
</graph:GModel>
