<?xml version="1.0" encoding="ASCII"?>
<graph:GModel xmi:version="2.0" xmlns:xmi="http://www.omg.org/XMI" xmlns:graph="http://de.tesis.dynaware.grapheditor.model/1.0">
  <nodes id="16EEF25FE1E" type="ulo-node-or" x="84.0" y="30.0" width="230.0" height="157.0">
    <connectors type="titled-right-output" connections="//@connections.0"/>
    <connectors type="titled-left-input"/>
    <connectors id="gcntr_26279991323925" type="titled-right-output" connections="//@connections.1"/>
  </nodes>
  <nodes id="16EEF262606" type="ulo-node-and" x="454.0" y="95.0" width="300.0" height="182.0">
    <connectors type="titled-right-output"/>
    <connectors type="titled-left-input" connections="//@connections.0"/>
  </nodes>
  <nodes id="16EEF26458D" type="ulo-node-tr-q" x="631.0" y="354.0" width="283.0" height="198.0">
    <connectors type="titled-right-output"/>
    <connectors type="titled-left-input" connections="//@connections.1"/>
  </nodes>
  <connections source="//@nodes.0/@connectors.0" target="//@nodes.1/@connectors.1">
    <joints x="384.0" y="83.0"/>
    <joints x="384.0" y="186.0"/>
  </connections>
  <connections source="gcntr_26279991323925" target="//@nodes.2/@connectors.1">
    <joints x="352.0" y="135.0"/>
    <joints x="352.0" y="453.0"/>
  </connections>
</graph:GModel>
